{
  "comments": [
    {
      "id": "58f9b08ed797b2000e28d24e232323",
      "comment": "Test comment for the api's GET endpoint",
      "created_at": "2017-04-21T07:11:10.914Z",
      "user": {
        "fullname": "Mihai Emil Andronache",
        "username": "amihaiemil"
      },
      "product": {
        "name": "versioneye-core-j",
        "language": "java",
        "prod_key": "com.versioneye/versioneye-core-j",
        "version": "1.3.3",
        "prod_type": "Maven2"
      }
    },
    {
      "id": "yurtuyrtuuyeprwiefwefpn",
      "comment": "Some other comment",
      "created_at": "2017-04-20T07:11:10.914Z",
      "user": {
        "fullname": "Mihai Emil Andronache",
        "username": "amihaiemil"
      },
      "product": {
        "name": "versioneye-core-j",
        "language": "java",
        "prod_key": "com.versioneye/versioneye-core-j",
        "version": "1.3.3",
        "prod_type": "Maven2"
      }
    }
  ],
  "paging": {
    "current_page": 1,
    "per_page": 2,
    "total_pages": 3,
    "total_entries": 6
  }
}